<?xml version="1.0" encoding="UTF-8" standalone="no"?>
<!-- Created with Inkscape (http://www.inkscape.org/) -->

<svg
   xmlns:dc="http://purl.org/dc/elements/1.1/"
   xmlns:cc="http://creativecommons.org/ns#"
   xmlns:rdf="http://www.w3.org/1999/02/22-rdf-syntax-ns#"
   xmlns:svg="http://www.w3.org/2000/svg"
   xmlns="http://www.w3.org/2000/svg"
   xmlns:sodipodi="http://sodipodi.sourceforge.net/DTD/sodipodi-0.dtd"
   xmlns:inkscape="http://www.inkscape.org/namespaces/inkscape"
   width="1080"
   height="1920"
   viewBox="0 0 1080 1920"
   id="svg2"
   version="1.1"
   inkscape:version="0.91 r13725"
   sodipodi:docname="drawing.svg">
  <defs
     id="defs4" />
  <sodipodi:namedview
     id="base"
     pagecolor="#ffffff"
     bordercolor="#666666"
     borderopacity="1.0"
     inkscape:pageopacity="0.0"
     inkscape:pageshadow="2"
     inkscape:zoom="0.70710678"
     inkscape:cx="657.58119"
     inkscape:cy="1461.2292"
     inkscape:document-units="px"
     inkscape:current-layer="layer3"
     showgrid="false"
     units="px"
     inkscape:window-width="2558"
     inkscape:window-height="993"
     inkscape:window-x="2"
     inkscape:window-y="0"
     inkscape:window-maximized="1" />
  <metadata
     id="metadata7">
    <rdf:RDF>
      <cc:Work
         rdf:about="">
        <dc:format>image/svg+xml</dc:format>
        <dc:type
           rdf:resource="http://purl.org/dc/dcmitype/StillImage" />
        <dc:title></dc:title>
      </cc:Work>
    </rdf:RDF>
  </metadata>
  <g
     inkscape:label="Layer 1"
     inkscape:groupmode="layer"
     id="layer1"
     transform="translate(0,867.63784)">
    <rect
       style="opacity:1;fill:#cbccb7;fill-opacity:1;stroke:none"
       id="rect4333"
       width="1080"
       height="1930"
       x="2"
       y="-869.63782"
       rx="3.07423"
       ry="3.2093" />
  </g>
  <g
     inkscape:groupmode="layer"
     id="layer2"
     inkscape:label="Layer 2"
     transform="translate(0,867.63784)">
    <rect
       style="opacity:0.40100002;fill:#ff0000;fill-opacity:0"
       id="rect4137"
       width="1008.5714"
       height="197.14285"
       x="28.571428"
       y="-853.35211"
       rx="3"
       ry="3" />
    <rect
       ry="5"
       rx="5"
       y="-829.04681"
       x="48"
       height="184"
       width="994"
       id="rect4555"
       style="opacity:1;fill:#c96466;fill-opacity:1;stroke:none" />
    <path
       style="opacity:1;fill:#ffffff;fill-opacity:0.2;stroke:none"
       d="m 52.878906,-829.05681 c -2.77,0 -5,2.23 -5,5 l 0,174 c 0,0.36998 0.04556,0.72754 0.121094,1.07422 l 0,-173.94726 c 0,-2.77 2.23,-5 5,-5 l 984,0 c 2.4007,0 4.3896,1.67591 4.8789,3.92578 l 0,-0.0527 c 0,-2.77 -2.23,-5 -5,-5 l -983.999994,0 z"
       id="rect4543"
       inkscape:connector-curvature="0" />
    <path
       inkscape:connector-curvature="0"
       id="path4557"
       d="m 52.878906,-644.98259 c -2.77,0 -5,-2.23 -5,-5 l 0,-174 c 0,-0.36998 0.04556,-0.72754 0.121094,-1.07422 l 0,173.94726 c 0,2.77 2.23,5 5,5 l 984,0 c 2.4007,0 4.3896,-1.67591 4.8789,-3.92578 l 0,0.0527 c 0,2.77 -2.23,5 -5,5 l -983.999994,0 z"
       style="opacity:1;fill:#5f1a2b;fill-opacity:0.68695658;stroke:none" />
  </g>
  <g
     inkscape:groupmode="layer"
     id="layer3"
     inkscape:label="sandwich-button">
    <rect
       style="opacity:1;fill:#e5e6d6;fill-opacity:1;stroke:none"
       id="rect4562"
       width="94"
       height="17"
       x="83.656853"
       y="84.263458"
       rx="3.07423"
       ry="3.2093" />
    <rect
       ry="3.2093"
       rx="3.07423"
       y="114.66905"
       x="83.656853"
       height="17"
       width="94"
       id="rect4564"
       style="opacity:1;fill:#e5e6d6;fill-opacity:1;stroke:none" />
    <rect
       style="opacity:1;fill:#e5e6d6;fill-opacity:1;stroke:none"
       id="rect4566"
       width="94"
       height="17"
       x="84.36396"
       y="145.78175"
       rx="3.07423"
       ry="3.2093" />
  </g>
</svg>
